%YAML 1.1
%TAG !u! tag:unity3d.com,2011:
--- !u!1001 &2851409289131144917
PrefabInstance:
  m_ObjectHideFlags: 0
  serializedVersion: 2
  m_Modification:
    m_TransformParent: {fileID: 0}
    m_Modifications:
    - target: {fileID: 435498086, guid: 0254e8a3bb6dd274f945f5c82a9c2284, type: 3}
      propertyPath: m_LocalScale.y
      value: 0.45796105
      objectReference: {fileID: 0}
    - target: {fileID: 435498086, guid: 0254e8a3bb6dd274f945f5c82a9c2284, type: 3}
      propertyPath: m_LocalPosition.y
      value: 0.2349
      objectReference: {fileID: 0}
    - target: {fileID: 1318254076, guid: 0254e8a3bb6dd274f945f5c82a9c2284, type: 3}
      propertyPath: m_LocalScale.x
      value: 2.1217456
      objectReference: {fileID: 0}
    - target: {fileID: 1318254076, guid: 0254e8a3bb6dd274f945f5c82a9c2284, type: 3}
      propertyPath: m_LocalPosition.x
      value: 1.3623
      objectReference: {fileID: 0}
    - target: {fileID: 1318254076, guid: 0254e8a3bb6dd274f945f5c82a9c2284, type: 3}
      propertyPath: m_LocalPosition.y
      value: 0.139
      objectReference: {fileID: 0}
    - target: {fileID: 1538528533, guid: 0254e8a3bb6dd274f945f5c82a9c2284, type: 3}
      propertyPath: m_LocalScale.x
      value: 2.1217456
      objectReference: {fileID: 0}
    - target: {fileID: 1538528533, guid: 0254e8a3bb6dd274f945f5c82a9c2284, type: 3}
      propertyPath: m_LocalPosition.x
      value: -1.6623
      objectReference: {fileID: 0}
    - target: {fileID: 1538528533, guid: 0254e8a3bb6dd274f945f5c82a9c2284, type: 3}
      propertyPath: m_LocalPosition.y
      value: 0.139
      objectReference: {fileID: 0}
    - target: {fileID: 1538528533, guid: 0254e8a3bb6dd274f945f5c82a9c2284, type: 3}
      propertyPath: m_LocalRotation.z
      value: 0.13052616
      objectReference: {fileID: 0}
    - target: {fileID: 1538528533, guid: 0254e8a3bb6dd274f945f5c82a9c2284, type: 3}
      propertyPath: m_LocalEulerAnglesHint.z
      value: 15
      objectReference: {fileID: 0}
    - target: {fileID: 5013474458009009425, guid: 0254e8a3bb6dd274f945f5c82a9c2284, type: 3}
      propertyPath: m_Name
      value: rock_bricks_wall_3x3x0.3_doorway_destroyed_100_bricks_single_mesh_ramp
      objectReference: {fileID: 0}
    - target: {fileID: 5681467786391365547, guid: 0254e8a3bb6dd274f945f5c82a9c2284, type: 3}
      propertyPath: m_RootOrder
      value: 0
      objectReference: {fileID: 0}
    - target: {fileID: 5681467786391365547, guid: 0254e8a3bb6dd274f945f5c82a9c2284, type: 3}
      propertyPath: m_LocalPosition.x
      value: 0
      objectReference: {fileID: 0}
    - target: {fileID: 5681467786391365547, guid: 0254e8a3bb6dd274f945f5c82a9c2284, type: 3}
      propertyPath: m_LocalPosition.y
      value: 0
      objectReference: {fileID: 0}
    - target: {fileID: 5681467786391365547, guid: 0254e8a3bb6dd274f945f5c82a9c2284, type: 3}
      propertyPath: m_LocalPosition.z
      value: -8
      objectReference: {fileID: 0}
    - target: {fileID: 5681467786391365547, guid: 0254e8a3bb6dd274f945f5c82a9c2284, type: 3}
      propertyPath: m_LocalRotation.w
      value: 1
      objectReference: {fileID: 0}
    - target: {fileID: 5681467786391365547, guid: 0254e8a3bb6dd274f945f5c82a9c2284, type: 3}
      propertyPath: m_LocalRotation.x
      value: 0
      objectReference: {fileID: 0}
    - target: {fileID: 5681467786391365547, guid: 0254e8a3bb6dd274f945f5c82a9c2284, type: 3}
      propertyPath: m_LocalRotation.y
      value: -0
      objectReference: {fileID: 0}
    - target: {fileID: 5681467786391365547, guid: 0254e8a3bb6dd274f945f5c82a9c2284, type: 3}
      propertyPath: m_LocalRotation.z
      value: -0
      objectReference: {fileID: 0}
    - target: {fileID: 5681467786391365547, guid: 0254e8a3bb6dd274f945f5c82a9c2284, type: 3}
      propertyPath: m_LocalEulerAnglesHint.x
      value: 0
      objectReference: {fileID: 0}
    - target: {fileID: 5681467786391365547, guid: 0254e8a3bb6dd274f945f5c82a9c2284, type: 3}
      propertyPath: m_LocalEulerAnglesHint.y
      value: 0
      objectReference: {fileID: 0}
    - target: {fileID: 5681467786391365547, guid: 0254e8a3bb6dd274f945f5c82a9c2284, type: 3}
      propertyPath: m_LocalEulerAnglesHint.z
      value: 0
      objectReference: {fileID: 0}
    m_RemovedComponents: []
  m_SourcePrefab: {fileID: 100100000, guid: 0254e8a3bb6dd274f945f5c82a9c2284, type: 3}
--- !u!4 &7587049684624445822 stripped
Transform:
  m_CorrespondingSourceObject: {fileID: 5681467786391365547, guid: 0254e8a3bb6dd274f945f5c82a9c2284, type: 3}
  m_PrefabInstance: {fileID: 2851409289131144917}
  m_PrefabAsset: {fileID: 0}
--- !u!1001 &2851409289686928271
PrefabInstance:
  m_ObjectHideFlags: 0
  serializedVersion: 2
  m_Modification:
    m_TransformParent: {fileID: 7587049684624445822}
    m_Modifications:
    - target: {fileID: 83284175813024158, guid: f89f51059ede0e24ea5b2a4cb2072b86, type: 3}
      propertyPath: m_Name
      value: stone_beam_1.6x0.4x0.3_beveled_with_collider (1)
      objectReference: {fileID: 0}
    - target: {fileID: 751030388868989732, guid: f89f51059ede0e24ea5b2a4cb2072b86, type: 3}
      propertyPath: m_RootOrder
      value: 4
      objectReference: {fileID: 0}
    - target: {fileID: 751030388868989732, guid: f89f51059ede0e24ea5b2a4cb2072b86, type: 3}
      propertyPath: m_LocalPosition.x
      value: -2.448
      objectReference: {fileID: 0}
    - target: {fileID: 751030388868989732, guid: f89f51059ede0e24ea5b2a4cb2072b86, type: 3}
      propertyPath: m_LocalPosition.y
      value: 0.334
      objectReference: {fileID: 0}
    - target: {fileID: 751030388868989732, guid: f89f51059ede0e24ea5b2a4cb2072b86, type: 3}
      propertyPath: m_LocalPosition.z
      value: -0.842
      objectReference: {fileID: 0}
    - target: {fileID: 751030388868989732, guid: f89f51059ede0e24ea5b2a4cb2072b86, type: 3}
      propertyPath: m_LocalRotation.w
      value: -0.36224306
      objectReference: {fileID: 0}
    - target: {fileID: 751030388868989732, guid: f89f51059ede0e24ea5b2a4cb2072b86, type: 3}
      propertyPath: m_LocalRotation.x
      value: 0.25283852
      objectReference: {fileID: 0}
    - target: {fileID: 751030388868989732, guid: f89f51059ede0e24ea5b2a4cb2072b86, type: 3}
      propertyPath: m_LocalRotation.y
      value: -0.10276697
      objectReference: {fileID: 0}
    - target: {fileID: 751030388868989732, guid: f89f51059ede0e24ea5b2a4cb2072b86, type: 3}
      propertyPath: m_LocalRotation.z
      value: 0.8912304
      objectReference: {fileID: 0}
    - target: {fileID: 751030388868989732, guid: f89f51059ede0e24ea5b2a4cb2072b86, type: 3}
      propertyPath: m_LocalEulerAnglesHint.x
      value: 0
      objectReference: {fileID: 0}
    - target: {fileID: 751030388868989732, guid: f89f51059ede0e24ea5b2a4cb2072b86, type: 3}
      propertyPath: m_LocalEulerAnglesHint.y
      value: 31.677
      objectReference: {fileID: 0}
    - target: {fileID: 751030388868989732, guid: f89f51059ede0e24ea5b2a4cb2072b86, type: 3}
      propertyPath: m_LocalEulerAnglesHint.z
      value: 224.239
      objectReference: {fileID: 0}
    - target: {fileID: 4796505709511435550, guid: f89f51059ede0e24ea5b2a4cb2072b86, type: 3}
      propertyPath: m_Enabled
      value: 0
      objectReference: {fileID: 0}
    m_RemovedComponents: []
  m_SourcePrefab: {fileID: 100100000, guid: f89f51059ede0e24ea5b2a4cb2072b86, type: 3}
