%YAML 1.1
%TAG !u! tag:unity3d.com,2011:
--- !u!1001 &4466858850393981225
PrefabInstance:
  m_ObjectHideFlags: 0
  serializedVersion: 2
  m_Modification:
    m_TransformParent: {fileID: 0}
    m_Modifications:
    - target: {fileID: -8679921383154817045, guid: 08636be43d6032f48ae9e9ebafc7739b, type: 3}
      propertyPath: m_RootOrder
      value: 0
      objectReference: {fileID: 0}
    - target: {fileID: -8679921383154817045, guid: 08636be43d6032f48ae9e9ebafc7739b, type: 3}
      propertyPath: m_LocalPosition.x
      value: 0.8
      objectReference: {fileID: 0}
    - target: {fileID: -8679921383154817045, guid: 08636be43d6032f48ae9e9ebafc7739b, type: 3}
      propertyPath: m_LocalPosition.y
      value: 0
      objectReference: {fileID: 0}
    - target: {fileID: -8679921383154817045, guid: 08636be43d6032f48ae9e9ebafc7739b, type: 3}
      propertyPath: m_LocalPosition.z
      value: 6
      objectReference: {fileID: 0}
    - target: {fileID: -8679921383154817045, guid: 08636be43d6032f48ae9e9ebafc7739b, type: 3}
      propertyPath: m_LocalRotation.w
      value: 1
      objectReference: {fileID: 0}
    - target: {fileID: -8679921383154817045, guid: 08636be43d6032f48ae9e9ebafc7739b, type: 3}
      propertyPath: m_LocalRotation.x
      value: 0
      objectReference: {fileID: 0}
    - target: {fileID: -8679921383154817045, guid: 08636be43d6032f48ae9e9ebafc7739b, type: 3}
      propertyPath: m_LocalRotation.y
      value: -0
      objectReference: {fileID: 0}
    - target: {fileID: -8679921383154817045, guid: 08636be43d6032f48ae9e9ebafc7739b, type: 3}
      propertyPath: m_LocalRotation.z
      value: -0
      objectReference: {fileID: 0}
    - target: {fileID: -8679921383154817045, guid: 08636be43d6032f48ae9e9ebafc7739b, type: 3}
      propertyPath: m_LocalEulerAnglesHint.x
      value: 0
      objectReference: {fileID: 0}
    - target: {fileID: -8679921383154817045, guid: 08636be43d6032f48ae9e9ebafc7739b, type: 3}
      propertyPath: m_LocalEulerAnglesHint.y
      value: 0
      objectReference: {fileID: 0}
    - target: {fileID: -8679921383154817045, guid: 08636be43d6032f48ae9e9ebafc7739b, type: 3}
      propertyPath: m_LocalEulerAnglesHint.z
      value: 0
      objectReference: {fileID: 0}
    - target: {fileID: -7511558181221131132, guid: 08636be43d6032f48ae9e9ebafc7739b, type: 3}
      propertyPath: m_Materials.Array.data[0]
      value: 
      objectReference: {fileID: 2100000, guid: fdf9e6f59c5b2b845b65702cebcf2392, type: 2}
    - target: {fileID: 919132149155446097, guid: 08636be43d6032f48ae9e9ebafc7739b, type: 3}
      propertyPath: m_Name
      value: stone_beam_1.6x0.4x0.3_with_collider
      objectReference: {fileID: 0}
    m_RemovedComponents: []
  m_SourcePrefab: {fileID: 100100000, guid: 08636be43d6032f48ae9e9ebafc7739b, type: 3}
--- !u!1 &3547730006216424568 stripped
GameObject:
  m_CorrespondingSourceObject: {fileID: 919132149155446097, guid: 08636be43d6032f48ae9e9ebafc7739b, type: 3}
  m_PrefabInstance: {fileID: 4466858850393981225}
  m_PrefabAsset: {fileID: 0}
--- !u!65 &5483375387656075322
BoxCollider:
  m_ObjectHideFlags: 0
  m_CorrespondingSourceObject: {fileID: 0}
  m_PrefabInstance: {fileID: 0}
  m_PrefabAsset: {fileID: 0}
  m_GameObject: {fileID: 3547730006216424568}
  m_Material: {fileID: 0}
  m_IsTrigger: 0
  m_Enabled: 1
  serializedVersion: 2
  m_Size: {x: 0.39999998, y: 0.30000007, z: 1.5999999}
  m_Center: {x: 0, y: 0.15000004, z: 0}
