%YAML 1.1
%TAG !u! tag:unity3d.com,2011:
--- !u!114 &11400000
MonoBehaviour:
  m_ObjectHideFlags: 0
  m_CorrespondingSourceObject: {fileID: 0}
  m_PrefabInstance: {fileID: 0}
  m_PrefabAsset: {fileID: 0}
  m_GameObject: {fileID: 0}
  m_Enabled: 1
  m_EditorHideFlags: 0
  m_Script: {fileID: 11500000, guid: 9105472ba9e34af4dab1d4bf4e9534fb, type: 3}
  m_Name: Magnum_Character
  m_EditorClassIdentifier: 
  name: Magnum
  thumbnail: {fileID: 0}
  characterPrefab: {fileID: 2037225031041043917, guid: 9a93ea0f585b397479124e69e2210062, type: 3}
