%YAML 1.1
%TAG !u! tag:unity3d.com,2011:
--- !u!114 &11400000
MonoBehaviour:
  m_ObjectHideFlags: 0
  m_CorrespondingSourceObject: {fileID: 0}
  m_PrefabInstance: {fileID: 0}
  m_PrefabAsset: {fileID: 0}
  m_GameObject: {fileID: 0}
  m_Enabled: 1
  m_EditorHideFlags: 0
  m_Script: {fileID: 11500000, guid: 82c2ad2dc0488e244bd4422ef220a115, type: 3}
  m_Name: Smith&Wesson642A
  m_EditorClassIdentifier: 
  clip: {fileID: 8300000, guid: 21e96bc4dd7ff9345a102db0f2f5a265, type: 3}
  pitchUnits: 1
  randomSemitones: 1
  allowSubSemitones: 1
  randomSemitonesRange: {x: -0.1, y: 0.1}
  fixedSemitones: 0
  randomSpeed: 0
  randomSpeedRange: {x: 0, y: 0}
  fixedSpeed: 1
  randomVolume: 0
  randomVolumeRange: {x: 0, y: 0}
  fixedVolume: 1
  minDistance: 50
  maxDistance: 10000
  loop: 0
