%YAML 1.1
%TAG !u! tag:unity3d.com,2011:
--- !u!114 &11400000
MonoBehaviour:
  m_ObjectHideFlags: 0
  m_CorrespondingSourceObject: {fileID: 0}
  m_PrefabInstance: {fileID: 0}
  m_PrefabAsset: {fileID: 0}
  m_GameObject: {fileID: 0}
  m_Enabled: 1
  m_EditorHideFlags: 0
  m_Script: {fileID: 11500000, guid: d4ca72b096be1474297434d831d4bce9, type: 3}
  m_Name: Burst_SO_Cluster
  m_EditorClassIdentifier: 
  clusterBurst:
    loop: 0
    projectileManagerSO: {fileID: 11400000, guid: 8aa5698c06bd89645979406777b02b49, type: 2}
    periodOffset: 0
    Hz: 20
    duration: -1
    repetitions: 5
    postPauseSecs: 0.5
